…
``` r
library(countryatlas)
library(ggplot2)
library(dplyr)
```

## One call to a map-ready tibble

``` r
data_2020 <- world_data(2020)
data_2020
#> # A tibble: 99,338 × 13
#>     long   lat group order subregion iso3c iso2c country continent region income
#>    <dbl> <dbl> <dbl> <int> <chr>     <chr> <chr> <chr>   <chr>     <chr>  <fct> 
#>  1 -69.9  12.5     1     1 <NA>      ABW   AW    Aruba   Americas  Latin… High …
#>  2 -69.9  12.4     1     2 <NA>      ABW   AW    Aruba   Americas  Latin… High …
#>  3 -69.9  12.4     1     3 <NA>      ABW   AW    Aruba   Americas  Latin… High …
#>  4 -70.0  12.5     1     4 <NA>      ABW   AW    Aruba   Americas  Latin… High …
#>  5 -70.1  12.5     1     5 <NA>      ABW   AW    Aruba   Americas  Latin… High …
#>  6 -70.1  12.6     1     6 <NA>      ABW   AW    Aruba   Americas  Latin… High …
#>  7 -70.0  12.6     1     7 <NA>      ABW   AW    Aruba   Americas  Latin… High …
#>  8 -70.0  12.6     1     8 <NA>      ABW   AW    Aruba   Americas  Latin… High …
#>  9 -69.9  12.5     1     9 <NA>      ABW   AW    Aruba   Americas  Latin… High …
#> 10 -69.9  12.5     1    10 <NA>      ABW   AW    Aruba   Americas  Latin… High …
#> # ℹ 99,328 more rows
#> # ℹ 2 more variables: gdp_per_capita <dbl>, gdp_per_capita_2015 <dbl>
```
…
