…
For `"polygon"`, a tibble with `long`/`lat`/`group` plus your columns.
For `"sf"`, an `sf` object.

## Examples

``` r
# \donttest{
df <- data.frame(iso3c = c("USA", "CAN"), value = c(1, 2))
if (requireNamespace("maps", quietly = TRUE)) {
  attach_geometry(df, geometry = "polygon")
}
#> ℹ `wdj_overrides()` is soft-deprecated; use `country_overrides()` instead.
#> This message is displayed once per session.
#> # A tibble: 99,338 × 9
#>     long   lat group order region subregion iso3c iso2c value
#>    <dbl> <dbl> <dbl> <int> <chr>  <chr>     <chr> <chr> <dbl>
#>  1 -69.9  12.5     1     1 Aruba  NA        ABW   AW       NA
#>  2 -69.9  12.4     1     2 Aruba  NA        ABW   AW       NA
#>  3 -69.9  12.4     1     3 Aruba  NA        ABW   AW       NA
#>  4 -70.0  12.5     1     4 Aruba  NA        ABW   AW       NA
#>  5 -70.1  12.5     1     5 Aruba  NA        ABW   AW       NA
#>  6 -70.1  12.6     1     6 Aruba  NA        ABW   AW       NA
#>  7 -70.0  12.6     1     7 Aruba  NA        ABW   AW       NA
#>  8 -70.0  12.6     1     8 Aruba  NA        ABW   AW       NA
#>  9 -69.9  12.5     1     9 Aruba  NA        ABW   AW       NA
#> 10 -69.9  12.5     1    10 Aruba  NA        ABW   AW       NA
#> # ℹ 99,328 more rows
…
