…
- group:

  One or more group names: any of `"EU"`, `"OECD"`, `"G7"`, `"G20"`,
  `"BRICS"`, `"ASEAN"`, `"EFTA"`, `"Commonwealth"`, `"OPEC"`,
  `"EuroZone"`, `"NATO"`. If `NULL`, the whole table is returned.

## Value

A tibble of `group`, `iso3c`, `country`.

## Examples

``` r
country_groups("EU")
#> # A tibble: 27 × 3
#>    group iso3c country 
#>    <chr> <chr> <chr>   
#>  1 EU    AUT   Austria 
#>  2 EU    BEL   Belgium 
#>  3 EU    BGR   Bulgaria
#>  4 EU    HRV   Croatia 
#>  5 EU    CYP   Cyprus  
#>  6 EU    CZE   Czechia 
#>  7 EU    DNK   Denmark 
#>  8 EU    EST   Estonia 
#>  9 EU    FIN   Finland 
#> 10 EU    FRA   France  
#> # ℹ 17 more rows
…
