…
#> ✖ The following indicators could not be downloaded: EN.ATM.CO2E.KT.
#> 
#> Please make sure that you are running the latest version of the `WDI` package,
#>   and that the arguments you are using in the `WDI()` function are valid.
#> 
#> Sometimes, downloads will suddenly stop working, even if nothing has changed in
#>   the R code of the WDI package. ("The same WDI package version worked
#>   yesterday!") In those cases, the problem is almost certainly related to the
#>   World Bank servers or to your internet connection.
#> 
#> You can check if the World Bank web API is currently serving the indicator(s)
#>   of interest by typing a URL of this form in your web browser:
#> 
#> https://api.worldbank.org/v2/en/country/all/indicator/EN.ATM.CO2E.KT?format=json&date=:&per_page=32500&page=1
#> # A tibble: 249 × 6
#>    iso3c iso2c country           continent  region                        income
#>    <chr> <chr> <chr>             <chr>      <chr>                         <fct> 
#>  1 AFG   AF    Afghanistan       Asia       Middle East, North Africa, A… Low i…
#>  2 ALB   AL    Albania           Europe     Europe & Central Asia         Upper…
#>  3 DZA   DZ    Algeria           Africa     Middle East, North Africa, A… Upper…
#>  4 ASM   AS    American Samoa    Oceania    East Asia & Pacific           High …
#>  5 AND   AD    Andorra           Europe     Europe & Central Asia         High …
#>  6 AGO   AO    Angola            Africa     Sub-Saharan Africa            Lower…
#>  7 AIA   AI    Anguilla          Americas   NA                            NA    
#>  8 ATA   AQ    Antarctica        Antarctica NA                            NA    
#>  9 ATG   AG    Antigua & Barbuda Americas   Latin America & Caribbean     High …
#> 10 ARG   AR    Argentina         Americas   Latin America & Caribbean     Upper…
#> # ℹ 239 more rows
…
