…
#> ✖ The following indicators could not be downloaded: NY.GDP.PCAP.KD.
#> 
#> Please make sure that you are running the latest version of the `WDI` package,
#>   and that the arguments you are using in the `WDI()` function are valid.
#> 
#> Sometimes, downloads will suddenly stop working, even if nothing has changed in
#>   the R code of the WDI package. ("The same WDI package version worked
#>   yesterday!") In those cases, the problem is almost certainly related to the
#>   World Bank servers or to your internet connection.
#> 
#> You can check if the World Bank web API is currently serving the indicator(s)
#>   of interest by typing a URL of this form in your web browser:
#> 
#> https://api.worldbank.org/v2/en/country/all/indicator/NY.GDP.PCAP.KD?format=json&date=:&per_page=32500&page=1
#> # A tibble: 99,338 × 11
#>     long   lat group order subregion iso3c iso2c country continent region income
#>    <dbl> <dbl> <dbl> <int> <chr>     <chr> <chr> <chr>   <chr>     <chr>  <fct> 
#>  1 -69.9  12.5     1     1 NA        ABW   AW    Aruba   Americas  Latin… High …
#>  2 -69.9  12.4     1     2 NA        ABW   AW    Aruba   Americas  Latin… High …
#>  3 -69.9  12.4     1     3 NA        ABW   AW    Aruba   Americas  Latin… High …
#>  4 -70.0  12.5     1     4 NA        ABW   AW    Aruba   Americas  Latin… High …
#>  5 -70.1  12.5     1     5 NA        ABW   AW    Aruba   Americas  Latin… High …
#>  6 -70.1  12.6     1     6 NA        ABW   AW    Aruba   Americas  Latin… High …
#>  7 -70.0  12.6     1     7 NA        ABW   AW    Aruba   Americas  Latin… High …
#>  8 -70.0  12.6     1     8 NA        ABW   AW    Aruba   Americas  Latin… High …
#>  9 -69.9  12.5     1     9 NA        ABW   AW    Aruba   Americas  Latin… High …
#> 10 -69.9  12.5     1    10 NA        ABW   AW    Aruba   Americas  Latin… High …
#> # ℹ 99,328 more rows
…
#> ✖ The following indicators could not be downloaded: SP.DYN.LE00.IN.
#> 
#> Please make sure that you are running the latest version of the `WDI` package,
#>   and that the arguments you are using in the `WDI()` function are valid.
#> 
#> Sometimes, downloads will suddenly stop working, even if nothing has changed in
#>   the R code of the WDI package. ("The same WDI package version worked
#>   yesterday!") In those cases, the problem is almost certainly related to the
#>   World Bank servers or to your internet connection.
#> 
#> You can check if the World Bank web API is currently serving the indicator(s)
#>   of interest by typing a URL of this form in your web browser:
#> 
#> https://api.worldbank.org/v2/en/country/all/indicator/SP.DYN.LE00.IN?format=json&date=:&per_page=32500&page=1
#> # A tibble: 249 × 6
#>    iso3c iso2c country           continent  region                        income
#>    <chr> <chr> <chr>             <chr>      <chr>                         <fct> 
#>  1 AFG   AF    Afghanistan       Asia       Middle East, North Africa, A… Low i…
#>  2 ALB   AL    Albania           Europe     Europe & Central Asia         Upper…
#>  3 DZA   DZ    Algeria           Africa     Middle East, North Africa, A… Upper…
#>  4 ASM   AS    American Samoa    Oceania    East Asia & Pacific           High …
#>  5 AND   AD    Andorra           Europe     Europe & Central Asia         High …
#>  6 AGO   AO    Angola            Africa     Sub-Saharan Africa            Lower…
#>  7 AIA   AI    Anguilla          Americas   NA                            NA    
#>  8 ATA   AQ    Antarctica        Antarctica NA                            NA    
#>  9 ATG   AG    Antigua & Barbuda Americas   Latin America & Caribbean     High …
#> 10 ARG   AR    Argentina         Americas   Latin America & Caribbean     Upper…
#> # ℹ 239 more rows
…
